lab2_code
…
1. Start with the google trends data.

google_trends_long <- gather(google_trends, key = "hurricane", value = "score", -date)

# I would encourage you to try to gain fluency with `pivot_longer()` instead, 
# which has superseded `gather()`. For example, the below pulls out just the 
# hurricane name while doing the `pivot_longer()`

google_trends %>% 
  pivot_longer(starts_with("hurricane"), 
               names_to = "hurricane", 
               values_to = "interest",
               names_pattern = "_(.+)_")

## # A tibble: 148 x 3
##    date       hurricane interest
##    <date>     <chr>        <int>
##  1 2017-08-20 harvey           0
##  2 2017-08-20 irma             0
##  3 2017-08-20 maria            0
##  4 2017-08-20 jose             0
##  5 2017-08-21 harvey           0
##  6 2017-08-21 irma             0
##  7 2017-08-21 maria            0
##  8 2017-08-21 jose             0
##  9 2017-08-22 harvey           0
## 10 2017-08-22 irma             0
## #  with 138 more rows
…
